Pregunta,Respuesta
Pregunta 1,Respuesta 1
Pregunta 2,Respuesta 2
Pregunta 3,Respuesta 3
Pregunta 4,Respuesta 4
Pregunta 5,Respuesta 5
Pregunta 6,Respuesta 6
Pregunta 7,Respuesta 7
Pregunta 8,Respuesta 8
Pregunta 9,Respuesta 9
Pregunta 10,Respuesta 10
